…
Cross-validated prediction error comparison
-------------------------------------------

I will compare models in terms of the cross-validated prediction error.

I am using `crossv_mc`, which preforms training and testing splits multiple times and stores datasets in list columns.

``` r

bwt_cv_df <-
  crossv_mc(birthweight_df, 100) 

bwt_cv_df
## # A tibble: 100 x 3
##    train          test           .id  
##    <list>         <list>         <chr>
##  1 <S3: resample> <S3: resample> 001  
##  2 <S3: resample> <S3: resample> 002  
##  3 <S3: resample> <S3: resample> 003  
##  4 <S3: resample> <S3: resample> 004  
##  5 <S3: resample> <S3: resample> 005  
##  6 <S3: resample> <S3: resample> 006  
##  7 <S3: resample> <S3: resample> 007  
##  8 <S3: resample> <S3: resample> 008  
##  9 <S3: resample> <S3: resample> 009  
## 10 <S3: resample> <S3: resample> 010  
## # ... with 90 more rows
```
…
